<?xml version="1.0" standalone="no"?>
<!DOCTYPE svg PUBLIC "-//W3C//DTD SVG 20010904//EN"
 "http://www.w3.org/TR/2001/REC-SVG-20010904/DTD/svg10.dtd">
<svg version="1.0" xmlns="http://www.w3.org/2000/svg"
 width="400.000000pt" height="400.000000pt" viewBox="0 0 400.000000 400.000000"
 preserveAspectRatio="xMidYMid meet">
<metadata>
Created by potrace 1.11, written by Peter Selinger 2001-2013
</metadata>
<g transform="translate(0.000000,400.000000) scale(0.100000,-0.100000)"
fill="#000000" stroke="none">
<path d="M0 2359 c0 -902 3 -1639 7 -1637 5 2 55 27 113 57 231 118 452 187
744 231 167 25 415 42 494 34 53 -6 62 -4 110 26 29 18 51 37 49 43 -1 5 -243
67 -537 137 -293 71 -556 139 -584 152 -80 36 -205 166 -250 260 -66 137 -77
238 -50 438 8 63 15 159 15 214 -1 115 9 137 75 182 32 21 52 45 74 89 36 75
112 151 209 212 41 26 318 206 615 400 616 403 546 372 735 324 83 -22 120
-27 138 -20 13 5 41 9 62 9 29 0 1560 -340 1712 -380 52 -14 114 -63 143 -112
21 -37 28 -75 52 -273 l27 -229 -28 -53 c-15 -28 -67 -96 -116 -149 -49 -53
-89 -106 -89 -116 0 -35 -40 -97 -83 -130 -23 -17 -64 -62 -91 -98 -43 -59
-85 -92 -396 -315 -284 -203 -349 -254 -354 -276 -3 -15 -19 -43 -36 -62 l-31
-35 3 -138 3 -138 329 -68 329 -67 27 19 c16 11 33 20 40 20 18 0 503 -131
523 -141 16 -9 17 71 17 1611 l0 1620 -2000 0 -2000 0 0 -1641z"/>
<path d="M1079 3157 l-556 -363 171 -41 171 -41 115 102 c306 270 564 454 832
596 l108 56 -118 27 c-64 15 -128 27 -142 27 -17 0 -221 -128 -581 -363z"/>
<path d="M2011 3476 c9 -9 799 -179 805 -173 5 4 -765 178 -790 177 -11 0 -17
-2 -15 -4z"/>
<path d="M1834 3386 c-200 -105 -408 -244 -630 -422 -125 -99 -297 -254 -291
-260 2 -2 219 -56 483 -119 263 -64 484 -117 490 -119 6 -2 42 23 80 56 372
325 485 406 833 599 159 88 190 109 170 114 -13 3 -152 32 -309 65 -157 34
-374 81 -483 105 -108 25 -203 45 -210 45 -6 0 -67 -29 -133 -64z m3 -475 c22
-11 44 -28 48 -40 22 -72 -123 -146 -249 -127 -52 8 -106 48 -106 78 0 29 55
76 109 92 66 21 148 19 198 -3z"/>
<path d="M1646 2886 c-22 -8 -51 -26 -65 -40 -24 -25 -25 -27 -8 -43 16 -17
19 -15 60 29 65 70 116 73 176 10 23 -25 24 -25 37 -7 13 17 12 22 -5 38 -26
26 -140 33 -195 13z"/>
<path d="M1703 2853 c-27 -5 -39 -20 -49 -57 l-7 -29 56 6 c94 11 100 17 66
61 -20 26 -24 27 -66 19z"/>
<path d="M2838 3293 c6 -2 18 -2 25 0 6 3 1 5 -13 5 -14 0 -19 -2 -12 -5z"/>
<path d="M2888 3283 c7 -3 16 -2 19 1 4 3 -2 6 -13 5 -11 0 -14 -3 -6 -6z"/>
<path d="M2938 3273 c7 -3 16 -2 19 1 4 3 -2 6 -13 5 -11 0 -14 -3 -6 -6z"/>
<path d="M2525 2859 c-286 -199 -535 -371 -552 -383 l-33 -23 165 -40 c188
-46 220 -64 261 -144 14 -28 30 -85 36 -128 11 -74 10 -85 -32 -287 -46 -218
-61 -344 -40 -344 6 0 79 48 161 106 l150 106 -6 53 c-6 46 0 74 50 231 31 98
64 186 73 195 9 9 134 97 277 194 143 98 285 195 315 217 l56 38 79 -29 c83
-30 100 -45 150 -128 l30 -51 105 75 c157 111 143 79 119 278 -31 261 -48 280
-311 339 -87 20 -160 36 -164 36 -3 0 47 -39 112 -86 152 -110 191 -147 219
-211 37 -81 40 -95 20 -91 -10 2 -27 28 -41 62 -31 76 -37 82 -170 182 -180
133 -174 130 -329 159 -77 15 -149 28 -160 31 -14 3 -177 -105 -540 -357z"/>
<path d="M2615 2982 c-144 -86 -202 -127 -347 -244 -103 -83 -130 -113 -50
-55 26 18 156 109 290 201 208 144 253 177 240 176 -2 0 -62 -36 -133 -78z"/>
<path d="M460 2749 c-13 -6 -39 -21 -58 -35 -36 -28 -115 -124 -108 -131 2 -3
34 18 70 46 36 27 81 53 99 56 23 4 283 -52 894 -193 952 -220 921 -210 964
-299 38 -78 36 -133 -14 -373 -34 -161 -44 -228 -40 -267 7 -72 23 -67 23 7 0
34 18 143 41 248 48 214 54 323 26 408 -21 61 -76 120 -126 135 -118 33 -1698
409 -1719 408 -15 0 -38 -5 -52 -10z"/>
<path d="M440 2642 c-19 -10 -70 -45 -112 -79 l-77 -61 47 -11 c276 -60 1695
-405 1721 -418 43 -23 97 -85 116 -137 17 -47 69 -713 58 -743 -7 -17 -6 -17
17 -2 45 30 51 72 36 247 l-15 157 46 235 c50 256 52 299 10 362 -12 18 -36
42 -53 53 -22 15 -286 80 -885 218 -470 108 -859 197 -865 197 -5 0 -25 -8
-44 -18z"/>
<path d="M3094 2399 c-170 -116 -313 -215 -317 -219 -5 -4 -33 -86 -63 -181
-49 -158 -54 -180 -48 -234 8 -67 14 -75 62 -75 31 0 32 1 32 46 0 48 98 379
123 418 8 12 150 111 315 221 166 110 302 203 302 206 0 6 -69 29 -87 29 -6 0
-149 -95 -319 -211z"/>
<path d="M3797 2501 c-59 -43 -110 -80 -113 -83 -3 -4 1 -17 9 -30 8 -12 18
-45 22 -73 l7 -50 62 66 c89 93 128 153 134 205 2 24 1 44 -4 43 -5 0 -57 -36
-117 -78z"/>
<path d="M3214 2350 l-311 -208 -56 -184 c-35 -113 -57 -201 -57 -230 0 -45 1
-47 23 -39 20 7 22 15 23 77 1 54 11 97 45 196 l44 126 303 216 c167 119 309
216 315 216 14 0 119 -164 128 -200 6 -24 7 -24 8 4 1 39 -114 236 -138 235
-9 0 -156 -94 -327 -209z"/>
<path d="M197 2457 c-15 -10 -11 -12 25 -9 48 3 1725 -386 1776 -412 42 -22
90 -80 101 -123 5 -21 19 -171 30 -333 12 -162 24 -314 27 -336 4 -34 1 -47
-19 -69 -19 -23 -35 -29 -88 -35 l-64 -7 60 -2 c67 -1 100 15 115 55 9 22 -32
650 -46 716 -8 40 -61 115 -97 137 -31 19 -1734 431 -1781 431 -12 0 -30 -6
-39 -13z"/>
<path d="M3457 2432 c-33 -24 -37 -31 -32 -62 2 -19 7 -68 11 -107 l6 -73 75
52 c41 29 77 57 80 64 5 14 -78 154 -92 154 -5 -1 -27 -13 -48 -28z"/>
<path d="M3580 2410 c6 -11 13 -20 16 -20 2 0 0 9 -6 20 -6 11 -13 20 -16 20
-2 0 0 -9 6 -20z"/>
<path d="M188 2403 c-8 -10 -18 -24 -22 -30 -6 -10 -35 -204 -36 -237 0 -4 17
6 37 24 56 50 129 80 193 80 36 0 229 -42 570 -125 438 -107 528 -132 599
-167 262 -127 389 -443 275 -684 -14 -29 -43 -68 -64 -87 l-39 -33 62 4 c200
13 339 30 351 43 20 20 -32 699 -57 746 -19 35 -53 65 -94 81 -45 18 -1700
402 -1731 402 -16 0 -36 -8 -44 -17z"/>
<path d="M3373 2369 c-6 -6 -9 -44 -6 -102 5 -110 8 -118 28 -110 14 5 16 19
10 107 -7 104 -13 124 -32 105z"/>
<path d="M3616 2350 c20 -43 24 -47 24 -29 0 8 -10 25 -21 39 l-20 25 17 -35z"/>
<path d="M3270 2296 l-55 -41 8 -70 c5 -38 10 -85 13 -102 l5 -33 52 35 52 35
-4 92 c-5 133 -5 133 -71 84z"/>
<path d="M3525 2211 c-70 -50 -80 -61 -83 -92 -2 -18 -8 -40 -14 -46 -14 -18
-55 -16 -66 2 -7 13 -17 9 -62 -23 -46 -32 -56 -44 -61 -76 -6 -35 -29 -66
-50 -66 -4 0 -14 7 -23 15 -20 20 -22 20 -77 -21 -36 -26 -49 -42 -49 -61 0
-55 -36 -78 -79 -51 -16 10 -25 7 -55 -16 -32 -24 -36 -32 -36 -71 l0 -45 193
138 c105 76 267 191 360 256 92 65 172 127 178 137 5 11 9 33 7 48 l-3 29 -80
-57z"/>
<path d="M3678 2245 c2 -14 6 -25 8 -25 2 0 4 11 4 25 0 14 -4 25 -9 25 -4 0
-6 -11 -3 -25z"/>
<path d="M3641 2230 c-3 -53 -19 -74 -101 -131 -258 -180 -651 -462 -657 -472
-3 -6 31 16 78 48 500 353 675 478 682 491 4 8 6 33 4 57 -3 39 -4 40 -6 7z"/>
<path d="M3172 2228 c-13 -13 -14 -89 -4 -175 6 -47 9 -50 25 -39 16 12 16 22
6 117 -5 57 -11 105 -13 106 -1 2 -8 -3 -14 -9z"/>
<path d="M285 2198 c-142 -51 -202 -194 -161 -382 35 -157 147 -312 273 -379
74 -40 1162 -301 1215 -292 202 34 270 352 124 579 -59 91 -171 186 -260 220
-83 32 -1068 266 -1114 265 -26 0 -60 -5 -77 -11z m638 -148 c380 -94 539
-138 584 -161 167 -83 304 -332 273 -497 -20 -112 -86 -198 -170 -223 -39 -12
-69 -6 -563 115 -287 71 -546 136 -575 146 -72 25 -170 97 -220 162 -96 125
-141 297 -108 411 30 102 119 176 214 177 23 0 277 -58 565 -130z"/>
<path d="M315 2118 c-27 -15 -75 -59 -86 -80 -21 -39 -29 -122 -18 -182 17
-98 63 -182 143 -262 79 -79 151 -114 232 -114 46 0 110 26 134 54 8 10 -4 7
-31 -9 -163 -93 -414 87 -458 329 -21 117 18 217 104 264 11 6 16 11 10 11 -5
0 -19 -5 -30 -11z"/>
<path d="M367 2096 c-67 -25 -92 -56 -106 -133 -21 -111 32 -246 135 -342 123
-115 251 -122 328 -18 18 24 21 43 21 120 0 84 -3 99 -32 158 -76 155 -237
254 -346 215z"/>
<path d="M618 2064 c32 -28 54 -41 67 -38 26 5 508 -118 511 -131 2 -5 -7 -23
-21 -39 l-23 -29 -199 46 c-109 26 -201 47 -205 47 -4 0 -5 -7 -2 -15 4 -8 16
-15 29 -15 26 0 354 -76 362 -84 11 -10 -8 -76 -22 -76 -7 0 -82 16 -165 35
-83 19 -153 35 -156 35 -2 0 -4 -8 -4 -18 0 -14 8 -19 28 -20 15 -1 90 -16
167 -34 l140 -33 6 -40 c4 -22 4 -43 0 -48 -7 -7 -269 46 -308 63 -20 8 -23 7
-23 -10 0 -13 7 -20 20 -20 18 0 270 -53 311 -66 16 -5 53 -83 44 -93 -6 -6
-77 8 -257 51 -100 23 -128 33 -128 46 -1 11 -7 5 -17 -13 -39 -75 -105 -114
-190 -115 -199 -1 -406 236 -407 465 0 51 6 83 21 118 26 56 21 63 -6 8 -43
-83 -33 -216 26 -338 36 -76 149 -191 223 -226 48 -23 1092 -287 1136 -287 23
0 87 35 109 61 l20 23 -28 -21 c-16 -12 -52 -27 -80 -33 -104 -21 -219 30
-324 144 -31 33 -45 44 -29 23 15 -20 25 -41 22 -46 -7 -10 -17 -8 -338 70
-130 32 -208 55 -208 63 0 7 13 25 29 40 l29 28 204 -46 c111 -26 211 -51 220
-56 13 -7 10 5 -13 53 -79 170 -53 340 62 406 l47 27 -363 90 -364 91 47 -43z"/>
<path d="M739 1972 c8 -15 42 -27 148 -52 76 -17 163 -38 193 -46 34 -8 58
-10 64 -4 5 5 8 11 5 13 -2 2 -89 25 -194 51 -104 26 -198 49 -208 52 -16 5
-17 3 -8 -14z"/>
<path d="M1235 1848 c-34 -34 -45 -55 -55 -101 -27 -119 28 -273 135 -382 89
-91 168 -124 275 -115 25 2 15 5 -30 10 -87 8 -153 42 -220 110 -91 92 -140
204 -140 320 0 67 34 147 76 178 16 12 23 22 15 22 -7 0 -33 -19 -56 -42z"/>
<path d="M1346 1870 c-16 -5 -44 -23 -62 -41 -155 -151 50 -539 285 -539 162
0 215 159 121 358 -35 75 -118 166 -180 197 -54 27 -123 38 -164 25z"/>
<path d="M800 1850 c0 -17 30 -28 150 -54 153 -34 152 -34 157 -20 2 6 -37 20
-94 33 -54 12 -124 28 -155 36 -32 7 -58 10 -58 5z"/>
<path d="M830 1712 c0 -18 11 -21 248 -70 15 -3 22 0 22 12 0 8 -10 18 -22 21
-13 3 -71 16 -130 30 -128 30 -118 29 -118 7z"/>
<path d="M825 1600 c-9 -15 -14 -13 100 -39 55 -12 126 -28 157 -36 54 -12 57
-12 48 4 -6 13 -45 26 -135 45 -69 16 -134 30 -144 33 -10 3 -22 0 -26 -7z"/>
<path d="M777 1496 c-4 -9 1 -17 11 -20 62 -18 406 -96 412 -94 5 2 3 10 -3
19 -8 10 -78 31 -197 58 -102 23 -192 44 -201 47 -9 3 -19 -2 -22 -10z"/>
<path d="M3067 2153 c-47 -35 -47 -36 -42 -82 2 -25 7 -72 10 -103 l6 -58 47
32 c26 17 49 32 51 34 6 5 -11 214 -18 213 -3 0 -27 -16 -54 -36z"/>
<path d="M3392 2117 c-9 -11 -10 -17 -2 -22 15 -9 23 -1 18 21 -3 15 -4 16
-16 1z"/>
<path d="M2966 2081 c-3 -5 -3 -56 1 -114 6 -100 7 -105 25 -94 17 11 19 20
13 97 -4 47 -9 93 -11 103 -6 18 -19 23 -28 8z"/>
<path d="M3231 1829 c-201 -142 -348 -239 -358 -237 -11 2 -20 15 -23 33 -8
44 -44 42 -48 -2 -3 -31 24 -73 47 -73 8 0 703 489 726 511 32 31 -40 -18
-344 -232z"/>
<path d="M2892 1892 c-18 -54 -32 -101 -32 -105 0 -4 19 7 43 24 23 17 42 35
41 40 -1 5 -2 38 -2 74 -1 36 -6 65 -10 65 -4 0 -22 -44 -40 -98z"/>
<path d="M3191 1976 c-8 -9 -11 -19 -7 -23 9 -9 29 13 24 27 -2 8 -8 7 -17 -4z"/>
<path d="M3195 1753 c-165 -118 -309 -218 -320 -222 -11 -5 -58 -3 -104 4 -98
15 -121 33 -121 96 0 21 -4 40 -8 43 -5 3 -77 -43 -160 -101 l-152 -107 6
-146 c4 -80 7 -146 8 -146 0 -1 80 42 177 96 133 74 266 163 560 373 346 248
451 329 423 326 -5 0 -144 -98 -309 -216z"/>
<path d="M2992 1838 c-16 -16 -15 -28 3 -28 8 0 15 9 15 20 0 23 -2 24 -18 8z"/>
<path d="M2680 1626 c0 -40 20 -56 68 -56 28 0 28 1 23 43 -6 41 -7 42 -48 45
l-43 3 0 -35z"/>
<path d="M2282 1378 c12 -141 -2 -179 -81 -229 -35 -23 -41 -30 -27 -35 27
-10 93 14 115 43 16 19 21 40 21 87 0 112 -12 226 -24 226 -9 0 -10 -26 -4
-92z"/>
<path d="M2688 1331 c-42 -25 -94 -56 -115 -69 -56 -33 -5 -19 84 24 42 20 81
47 93 64 12 17 20 30 18 29 -2 -1 -38 -22 -80 -48z"/>
<path d="M2655 1248 c-22 -10 -62 -25 -90 -34 l-50 -16 2 -237 c2 -130 6 -300
9 -377 l6 -142 28 -6 c16 -3 30 -12 32 -20 2 -11 14 -6 46 20 37 31 42 41 42
77 0 23 7 48 16 58 15 17 16 50 8 357 l-9 339 -40 -19z"/>
<path d="M2424 1169 c-6 -11 2 -518 12 -717 3 -61 10 -112 15 -112 5 0 9 64 9
143 0 262 -13 697 -21 697 -4 0 -11 -5 -15 -11z"/>
<path d="M2374 1078 c3 -46 8 -233 12 -415 4 -207 10 -333 16 -333 6 0 8 36 4
98 -3 53 -9 240 -12 415 -4 199 -10 317 -16 317 -7 0 -8 -30 -4 -82z"/>
<path d="M1830 1123 c-19 -1 -63 -6 -97 -9 -48 -4 -63 -9 -63 -21 0 -13 -8
-14 -40 -9 -32 5 -40 3 -40 -9 0 -8 12 -17 28 -21 45 -10 52 -13 52 -25 0 -8
-13 -10 -40 -6 -30 4 -40 2 -40 -9 0 -7 12 -16 28 -20 45 -10 52 -13 52 -25 0
-8 -13 -10 -40 -6 -29 4 -40 2 -40 -8 0 -8 17 -16 40 -20 26 -4 40 -12 40 -22
0 -13 -8 -14 -40 -9 -53 8 -56 -18 -3 -31 54 -13 58 -38 4 -30 -30 4 -41 2
-41 -8 0 -14 21 -25 48 -25 27 0 48 -18 37 -29 -6 -6 -24 -7 -48 -2 -28 7 -37
6 -37 -4 0 -8 18 -17 42 -22 61 -12 65 -37 4 -31 -25 3 -46 2 -46 -1 0 -14 25
-31 45 -31 27 0 49 -15 41 -28 -3 -6 -19 -7 -41 -2 -27 6 -35 5 -35 -6 0 -15
6 -18 53 -29 42 -9 28 -31 -18 -27 -47 5 -44 -19 4 -29 37 -8 45 -14 37 -27
-3 -6 -20 -7 -41 -2 -27 6 -35 5 -35 -6 0 -7 12 -16 28 -20 45 -10 52 -13 52
-25 0 -8 -13 -10 -40 -6 -50 6 -57 -18 -7 -28 17 -3 46 -13 62 -21 41 -19 519
-106 547 -99 13 3 44 2 71 -3 36 -7 47 -7 47 4 0 14 -14 19 -77 29 -27 4 -43
12 -43 21 0 16 16 17 78 5 37 -7 43 -6 40 8 -2 11 -20 19 -61 25 -39 6 -57 13
-57 23 0 11 11 13 61 7 50 -6 61 -4 57 7 -3 8 -27 17 -54 22 -69 11 -80 15
-67 28 8 8 28 8 67 2 44 -8 56 -7 56 3 0 14 -16 20 -82 30 -33 4 -48 11 -48
21 0 12 9 14 48 9 26 -4 55 -9 65 -12 12 -4 17 0 17 14 0 16 -10 20 -54 26
-64 7 -86 14 -86 28 0 7 25 8 71 4 57 -6 70 -5 67 6 -3 7 -31 18 -63 23 -33 6
-60 16 -63 24 -4 11 7 13 57 7 49 -6 61 -4 61 7 0 10 -19 17 -60 23 -79 12
-78 30 0 26 47 -2 60 0 60 12 0 10 -16 17 -55 21 -30 4 -60 14 -67 23 -12 14
-6 14 55 8 54 -5 67 -4 67 7 0 10 -20 17 -62 23 -37 6 -63 14 -66 23 -4 12 7
13 62 7 54 -5 66 -4 66 8 0 10 -16 17 -53 21 -30 4 -60 10 -67 15 -17 11 -2
32 18 26 10 -2 36 -8 60 -11 33 -5 42 -4 42 8 0 9 -14 17 -37 21 -82 14 -93
18 -93 32 0 15 10 15 103 -2 19 -4 27 -1 27 9 0 9 -14 17 -37 21 -82 14 -93
18 -93 33 0 11 7 13 30 9 17 -3 44 -9 60 -12 25 -5 30 -2 30 14 0 23 -49 33
-96 20 -36 -10 -222 9 -369 37 -5 1 -26 0 -45 -2z"/>
<path d="M2484 980 c0 -80 2 -112 3 -72 2 39 2 105 0 145 -1 39 -3 7 -3 -73z"/>
<path d="M1550 792 c0 -181 4 -293 10 -297 9 -6 3 573 -6 584 -2 2 -4 -127 -4
-287z"/>
<path d="M1368 975 c-75 -46 -199 -125 -275 -177 -82 -56 -178 -111 -238 -137
-217 -94 -218 -95 -360 -233 -74 -71 -148 -150 -164 -175 -33 -49 -85 -170
-96 -221 l-7 -32 385 0 384 0 17 62 c24 88 69 175 124 241 26 31 122 119 215
197 l167 141 0 210 c0 115 -3 209 -7 208 -5 0 -70 -38 -145 -84z"/>
<path d="M1190 1013 c-225 -10 -561 -68 -747 -128 -62 -21 -186 -74 -275 -119
l-163 -81 -3 -137 -3 -137 41 -21 c50 -25 256 -110 267 -110 4 1 24 21 43 46
19 26 87 94 150 152 121 111 104 101 380 229 41 19 151 85 245 147 93 62 186
122 205 134 29 18 31 22 14 22 -12 0 -34 2 -50 3 -16 2 -63 2 -104 0z"/>
<path d="M2738 826 c3 -160 -2 -148 75 -161 32 -5 41 -12 53 -41 8 -19 19 -34
24 -34 20 0 22 -31 4 -52 -11 -13 0 -8 24 11 24 18 131 94 239 167 108 74 194
134 191 134 -3 0 -137 27 -297 60 -161 33 -297 60 -304 60 -9 0 -11 -37 -9
-144z"/>
<path d="M3247 740 c-339 -228 -469 -331 -776 -614 -155 -142 -206 -126 408
-126 418 0 531 3 532 13 1 6 0 49 -1 95 -1 48 4 96 10 113 16 38 535 489 564
489 21 1 21 1 -1 19 -16 14 -360 114 -503 146 -20 4 -65 -21 -233 -135z"/>
<path d="M3720 459 c-140 -121 -260 -230 -267 -242 -7 -12 -12 -40 -13 -62 l0
-40 28 58 c24 51 49 77 231 232 191 163 237 195 289 195 7 0 12 15 12 40 0 25
-5 40 -12 40 -7 0 -128 -99 -268 -221z"/>
<path d="M2763 587 c-47 -38 -52 -46 -52 -84 -1 -25 4 -43 10 -43 7 0 8 14 4
39 -6 38 -5 40 49 81 31 23 56 44 56 46 0 11 -20 -1 -67 -39z"/>
<path d="M1450 543 c-294 -251 -331 -291 -379 -408 -37 -90 -45 -135 -26 -135
8 0 20 21 29 53 35 119 104 203 319 389 97 84 127 115 127 134 0 13 -1 24 -2
23 -2 0 -32 -25 -68 -56z"/>
<path d="M2794 558 c-21 -16 -39 -33 -38 -39 1 -5 2 -18 3 -30 1 -18 7 -16 56
23 30 23 55 45 55 48 0 3 -8 10 -18 16 -15 10 -25 6 -58 -18z"/>
<path d="M3945 559 c-16 -4 -118 -84 -225 -176 -209 -180 -227 -203 -264 -330
l-15 -53 280 0 279 0 0 285 c0 222 -3 285 -12 284 -7 0 -26 -5 -43 -10z"/>
<path d="M2494 445 c0 -55 1 -76 3 -47 2 29 2 74 0 100 -2 26 -3 2 -3 -53z"/>
<path d="M1349 365 c-58 -51 -123 -113 -143 -137 -35 -40 -97 -155 -111 -205
l-6 -23 614 0 614 0 14 26 c8 15 43 53 79 85 52 47 60 59 43 59 -12 0 -25 -4
-28 -10 -3 -5 -21 -10 -38 -10 -42 0 -949 180 -961 191 -6 5 -3 16 6 26 12 14
34 95 25 93 -1 -1 -50 -43 -108 -95z"/>
<path d="M2640 400 c-24 -22 -41 -42 -37 -46 5 -6 107 72 107 82 0 14 -31 -2
-70 -36z"/>
<path d="M2729 403 c-13 -16 -12 -17 4 -4 9 7 17 15 17 17 0 8 -8 3 -21 -13z"/>
<path d="M1480 383 l0 -28 443 -88 c243 -48 451 -88 462 -87 29 0 45 19 45 52
0 32 0 32 -32 17 -18 -8 -114 7 -448 70 -234 45 -435 83 -447 86 -20 5 -23 1
-23 -22z"/>
<path d="M2665 355 c-22 -19 -46 -35 -52 -35 -7 0 -13 -4 -13 -10 0 -19 18
-10 67 35 57 52 56 59 -2 10z"/>
<path d="M0 321 c0 -26 5 -30 85 -57 47 -16 85 -33 85 -39 0 -6 -38 -39 -85
-75 -47 -36 -85 -70 -85 -77 0 -7 2 -13 4 -13 9 0 233 186 235 194 1 5 -40 24
-91 41 -52 18 -104 37 -115 44 -31 16 -33 14 -33 -18z"/>
<path d="M2532 297 c-34 -23 -40 -47 -19 -66 10 -8 21 -4 44 17 27 24 29 30
19 49 l-12 22 -32 -22z"/>
<path d="M2395 290 c-16 -11 -25 -20 -20 -20 10 0 64 39 55 40 -3 0 -18 -9
-35 -20z"/>
<path d="M2461 238 c-1 -21 1 -38 3 -38 2 0 13 -3 23 -7 16 -6 16 -5 5 9 -7 9
-17 29 -22 45 -8 27 -8 27 -9 -9z"/>
<path d="M0 251 c0 -10 83 -41 109 -41 25 0 0 16 -53 34 -58 19 -56 19 -56 7z"/>
<path d="M140 128 c-74 -60 -137 -113 -138 -119 -2 -5 38 -9 96 -9 l100 0 12
52 c7 29 26 82 41 117 16 35 28 65 27 66 -2 2 -64 -47 -138 -107z"/>
<path d="M0 170 c0 -22 3 -40 8 -40 9 1 66 50 61 53 -7 5 -60 27 -64 27 -3 0
-5 -18 -5 -40z"/>
</g>
</svg>
